<?xml version="1.0"?>
<svg xmlns="http://www.w3.org/2000/svg" xmlns:xlink="http://www.w3.org/1999/xlink" version="1.1" id="Capa_1" x="0px" y="0px" width="512px" height="512px" viewBox="0 0 382.982 382.982" style="enable-background:new 0 0 382.982 382.982;" xml:space="preserve" class=""><g><g>
	<g>
		<polygon points="191.491,118.328 257.336,87.897 191.49,0 125.645,87.896   " data-original="#000000" class="active-path" data-old_color="#00AFFF" fill="#00B7FF"/>
		<polygon points="322.867,185.372 270.236,115.116 191.491,151.509 112.745,115.116 60.115,185.372 191.491,251.631   " data-original="#000000" class="active-path" data-old_color="#00AFFF" fill="#00B7FF"/>
		<polygon points="336.252,213.24 191.491,286.249 46.73,213.24 1.491,273.629 191.49,382.982 381.491,273.629   " data-original="#000000" class="active-path" data-old_color="#00AFFF" fill="#00B7FF"/>
	</g>
</g></g> </svg>
